…
``` r
boot_sample = function(df) {
  sample_frac(df, replace = TRUE)
}
boot_straps = 
  data_frame(
    strap_number = 1:5000,
    strap_sample = rerun(5000, boot_sample(weather_df))
  )

boot_straps
```

    ## # A tibble: 5,000 x 2
    ##    strap_number strap_sample      
    ##           <int> <list>            
    ##  1            1 <tibble [365 × 6]>
    ##  2            2 <tibble [365 × 6]>
    ##  3            3 <tibble [365 × 6]>
    ##  4            4 <tibble [365 × 6]>
    ##  5            5 <tibble [365 × 6]>
    ##  6            6 <tibble [365 × 6]>
    ##  7            7 <tibble [365 × 6]>
    ##  8            8 <tibble [365 × 6]>
    ##  9            9 <tibble [365 × 6]>
    ## 10           10 <tibble [365 × 6]>
    ## # … with 4,990 more rows
…
``` r
bootstrap_results = 
boot_straps %>% 
  mutate(models = map(strap_sample, ~lm(tmax ~ tmin, data = .x)),
    results = map(models, broom::glance),
    results_coeff = map(models, broom::tidy)) %>% 
  select(-strap_sample, -models) %>% 
  unnest() %>% 
  select(term, estimate, r.squared) 
  
bootstrap_results %>%   
  select(r.squared) 
```

    ## # A tibble: 10,000 x 1
    ##    r.squared
    ##        <dbl>
    ##  1     0.915
    ##  2     0.915
    ##  3     0.921
    ##  4     0.921
    ##  5     0.911
    ##  6     0.911
    ##  7     0.921
    ##  8     0.921
    ##  9     0.919
    ## 10     0.919
    ## # … with 9,990 more rows
…
